…
Parse the BibTeX file to a tibble
---------------------------------

The BibTeX format is not convenient for any kind of analysis or visualization. Many R applications require a `data.frame` (or `tibble`) and `bib2df` offers a straightforward framework to parse a BibTeX file to a `tibble`.

``` r
library(bib2df)

path <- system.file("extdata", "LiteratureOnCommonKnowledgeInGameTheory.bib", package = "bib2df")

df <- bib2df(path)
df
#> # A tibble: 37 x 27
#>    CATEGORY BIBTEXKEY ADDRESS ANNOTE AUTHOR BOOKTITLE CHAPTER CROSSREF
#>    <chr>    <chr>     <chr>   <chr>  <list> <chr>     <chr>   <chr>   
#>  1 ARTICLE  Arrow1986 <NA>    <NA>   <chr … <NA>      <NA>    <NA>    
#>  2 ARTICLE  AumannBr… <NA>    <NA>   <chr … <NA>      <NA>    <NA>    
#>  3 ARTICLE  Aumann19… <NA>    <NA>   <chr … <NA>      <NA>    <NA>    
#>  4 INCOLLE… Bacharac… Cambri… <NA>   <chr … Knowledg… 17      <NA>    
#>  5 ARTICLE  Basu1988  <NA>    <NA>   <chr … <NA>      <NA>    <NA>    
#>  6 ARTICLE  Bernheim… <NA>    <NA>   <chr … <NA>      <NA>    <NA>    
#>  7 ARTICLE  Bicchier… <NA>    <NA>   <chr … <NA>      <NA>    <NA>    
#>  8 ARTICLE  Binmore2… <NA>    <NA>   <chr … <NA>      <NA>    <NA>    
#>  9 ARTICLE  Brandenb… <NA>    <NA>   <chr … <NA>      <NA>    <NA>    
#> 10 INCOLLE… Brandenb… New Yo… <NA>   <chr … The Econ… 3       <NA>    
#> # … with 27 more rows, and 19 more variables: EDITION <chr>,
#> #   EDITOR <list>, HOWPUBLISHED <chr>, INSTITUTION <chr>, JOURNAL <chr>,
#> #   KEY <chr>, MONTH <chr>, NOTE <chr>, NUMBER <chr>, ORGANIZATION <chr>,
#> #   PAGES <chr>, PUBLISHER <chr>, SCHOOL <chr>, SERIES <chr>, TITLE <chr>,
#> #   TYPE <chr>, VOLUME <chr>, YEAR <dbl>, DOI <chr>
```
…
